Wie überträgt sich die Max-Masse-Bedingung auf die anderen Variablen?

rad = 100
Msys shape = (11646, 118800), nonzero = 10793832
rad = 60
Msys shape = (8046, 118800), nonzero = 10792625
rad = 30
Msys shape = (5346, 118800), nonzero = 10793832

Plan:
- gt mit schlimmstem f1 unterschied suchen
- lsg anschauen
- vergleich 

Oder:
- ganz einfaches bsp, bei dem dyn besser seien sollte

           o->
        <-o

